/* XPM */
/* -copyright-
#-# 
#-# Copyright (C) 2021 Willem Vermin, Original copyright 1991 by J. T. Anderson
#-# 
*/
static const char *xroachng[] = {
/* columns rows colors chars-per-pixel */
"48 48 2 1 ",
"  c None",
". c black",
/* pixels */
"                                                ",
"                                                ",
"                                                ",
"                                                ",
"                            .                   ",
"                                                ",
"                                                ",
"                                                ",
"                     .                          ",
"             .            .                     ",
"              ..      ....        ..            ",
"              ..    . .....       ..            ",
"              ..      .....       .             ",
"              ..     .. ...      ..             ",
"              ..       ...       ..             ",
"              ..    ..........   ..             ",
"               .   ............  ..             ",
"               ..  ............  ..             ",
"               ..  ............  .              ",
"                .. ............ ..              ",
"                ..  .........  ..    ..         ",
"           ..     ...       ...     ..          ",
"            ..    ...... ......    ..           ",
"             ..   ...... ......   ..            ",
"              ..  ...... ......  ..             ",
"              .......... .........              ",
"                  ...... ......                 ",
"                  ...... ......                 ",
"                 ....... .......                ",
"                ........ ........               ",
"                ........ ...... .               ",
"               .  ...... ...... ..              ",
"               .  ...... ......  .              ",
"               .  ...... ......  .              ",
"               .   ..... .....   ..             ",
"              ..   ..... .....   ..             ",
"              ..   ..... .....   ..             ",
"              ..   ..... .....    .             ",
"              ..   ..... .....    ..            ",
"             ..    ..... .....     .            ",
"             .     ..... .....                  ",
"                    .... ....                   ",
"                    .... ....                   ",
"                      .                         ",
"                                                ",
"                                                ",
"                                                ",
"                                                "
};
